<?xml version="1.0" encoding="utf-8"?>
<!-- Generator: Adobe Illustrator 22.0.0, SVG Export Plug-In . SVG Version: 6.00 Build 0)  -->
<svg version="1.1" id="Layer_1" xmlns="http://www.w3.org/2000/svg" xmlns:xlink="http://www.w3.org/1999/xlink" x="0px" y="0px"
	 viewBox="0 0 500 800" style="enable-background:new 0 0 500 800;" xml:space="preserve">
<style type="text/css">
	.st0{fill:url(#SVGID_1_);}
	.st1{fill:url(#SVGID_2_);}
	.st2{fill:url(#SVGID_3_);}
	.st3{fill:url(#SVGID_4_);}
	.st4{fill:url(#SVGID_5_);}
	.st5{fill:url(#SVGID_6_);}
	.st6{fill:url(#SVGID_7_);}
	.st7{fill:#020202;}
</style>
<g>
	<g>
		<linearGradient id="SVGID_1_" gradientUnits="userSpaceOnUse" x1="-573.2169" y1="697.338" x2="-557.8744" y2="20.7352">
			<stop  offset="0.196" style="stop-color:#8D44AF"/>
			<stop  offset="0.5967" style="stop-color:#A83E6B"/>
			<stop  offset="1" style="stop-color:#C1392B"/>
		</linearGradient>
		<path class="st0" d="M-311.4,156.8c-113,31.8-174.5,79.6-213.9,129c-0.2,0.2-0.3,0.4-0.5,0.6c-1.2,1.5-2.4,3.1-3.6,4.6
			c-44.4,58.1-59.9,117.7-93.8,155.8c-30.5,34.3-74.5,47.4-112.1,51.8c-40.2,4.7-73.1-0.6-74.5-0.9c0,0,0,0,0,0
			c-2.2-0.9-3.9-2.1-5.1-3.5c-2.6-2.9-3.5-7.1-2.7-12.5c0.8-5.4,2.7-12.6,5.8-21.5L-658.6,19c1.5-4.4,3.3-7.9,5.4-10.6
			c2.1-2.7,5.3-4.7,9.8-6.1c4.5-1.4,10.7-2.3,18.7-2.7c7.9-0.4,18.4-0.6,31.5-0.6c15.1,0,27.2,0.2,36.1,0.6c9,0.4,16,1.3,21,2.7
			c5,1.4,8.6,3.5,10.8,6.3c2.2,2.8,4,6.7,5.6,11.5l38.1,109.3c31.7-3.5,63.1,4.1,63.1,4.1c-22.4,2.7-41.2,7.3-57.1,12.9
			c-64.3,22.8-79.8,62.8-80.4,64.3c0,0,0,0,0,0l-38.2-114.5h-0.4l-19.6,59.1l-67.2,198.2c33.7-20.9,89.2-61.6,131.9-123.3
			c0,0,0-0.1,0.1-0.1c0.4-0.6,0.8-1.2,1.2-1.7c0-0.1,0.1-0.1,0.1-0.2c5.1-6.4,11.6-14.1,18.8-21c0.2-0.2,0.4-0.4,0.5-0.5
			c5.8-5.2,12-9.9,18.5-14.2c0,0,0,0,0,0c0,0,0.2-0.1,0.5-0.3c3-1.8,19.2-11.3,38.6-19c1.5-0.5,2.9-1.1,4.4-1.6
			C-394.2,146.5-311.4,156.8-311.4,156.8z"/>
		<linearGradient id="SVGID_2_" gradientUnits="userSpaceOnUse" x1="-620.7141" y1="-213.7156" x2="-826.7514" y2="751.7166">
			<stop  offset="0" style="stop-color:#DA2F73"/>
			<stop  offset="0.8755" style="stop-color:#2E2B63"/>
		</linearGradient>
		<path class="st1" d="M-735.4,498.7c-3.1,0.7-6.9,1.3-11.4,1.6c-6.8,0.5-15.7,0.8-26.7,0.8c-11.8,0-21-0.4-27.7-1.2
			c-3.5-0.4-6.4-1.1-8.7-2.1C-808.5,498-775.6,503.3-735.4,498.7z"/>
		<linearGradient id="SVGID_3_" gradientUnits="userSpaceOnUse" x1="-461.8404" y1="-179.8096" x2="-667.8777" y2="785.6225">
			<stop  offset="0" style="stop-color:#DA2F73"/>
			<stop  offset="0.8755" style="stop-color:#2E2B63"/>
		</linearGradient>
		<path class="st2" d="M-549.8,230c0.4-0.5,0.8-1,1.3-1.6c-0.4,0.6-0.8,1.1-1.2,1.7L-549.8,230z"/>
		<linearGradient id="SVGID_4_" gradientUnits="userSpaceOnUse" x1="-429.0754" y1="-172.8171" x2="-635.1127" y2="792.6151">
			<stop  offset="0" style="stop-color:#DA2F73"/>
			<stop  offset="0.8755" style="stop-color:#2E2B63"/>
		</linearGradient>
		<path class="st3" d="M-529.4,291.1c1.2-1.6,2.4-3.1,3.6-4.6C-527,288-528.2,289.6-529.4,291.1L-529.4,291.1z"/>
		<linearGradient id="SVGID_5_" gradientUnits="userSpaceOnUse" x1="-439.7584" y1="-175.097" x2="-645.7957" y2="790.3351">
			<stop  offset="0" style="stop-color:#DA2F73"/>
			<stop  offset="0.8755" style="stop-color:#2E2B63"/>
		</linearGradient>
		<path class="st4" d="M-529,206.7c5.9-5.7,12.3-10.7,18.5-14.2C-517,196.8-523.2,201.5-529,206.7z"/>
		<linearGradient id="SVGID_6_" gradientUnits="userSpaceOnUse" x1="-396.9352" y1="-165.9579" x2="-602.9725" y2="799.4742">
			<stop  offset="0" style="stop-color:#DA2F73"/>
			<stop  offset="0.8755" style="stop-color:#2E2B63"/>
		</linearGradient>
		<path class="st5" d="M-467,171.7c-1.5,0.5-2.9,1-4.4,1.6c1.4-0.6,2.9-1.1,4.4-1.7L-467,171.7z"/>
		<linearGradient id="SVGID_7_" gradientUnits="userSpaceOnUse" x1="-323.3817" y1="-150.2605" x2="-529.4191" y2="815.1716">
			<stop  offset="0" style="stop-color:#DA2F73"/>
			<stop  offset="0.8755" style="stop-color:#2E2B63"/>
		</linearGradient>
		<path class="st6" d="M-363.3,495.1c-2.8,2.7-7.8,4.4-15,5c-7.2,0.6-17.1,1-29.6,1c-13.1,0-23.3-0.2-30.5-0.6
			c-7.3-0.4-12.9-1.2-16.7-2.3c-2.7-0.8-4.6-1.9-6.2-3.2l-47.7-143c-15.8,13-27,27.9-27,27.9c18.3-76.1,91.2-128.1,95.7-131.2
			c0.1,0,0.1-0.1,0.2-0.2l74.1,212.6c3.1,9.2,5,16.5,5.8,21.9C-359.5,488.3-360.5,492.4-363.3,495.1z"/>
	</g>
	<g>
		<path class="st7" d="M382.4,343.6c0,24.6-4.6,46.1-13.7,64.7c-9.2,18.5-21.6,34-37.2,46.4c-15.7,12.4-34,21.7-54.9,28
			c-21,6.3-43.3,9.4-67.2,9.4c-16.1,0-31.1-1.3-45-4c-13.9-2.7-26.1-5.8-36.7-9.6c-10.6-3.7-19.4-7.6-26.6-11.7
			c-7.1-4.1-12.2-7.7-15.4-10.8c-3.1-3.1-5.4-7.6-6.7-13.5c-1.3-5.9-2-14.4-2-25.5c0-7.5,0.2-13.7,0.7-18.8
			c0.5-5.1,1.3-9.1,2.3-12.3c1.1-3.1,2.5-5.4,4.3-6.7c1.8-1.3,3.9-2,6.3-2c3.4,0,8.1,2,14.3,6c6.1,4,14,8.4,23.7,13.2
			c9.6,4.8,21.1,9.2,34.5,13.2c13.4,4,28.8,6,46.4,6c11.6,0,21.9-1.4,31.1-4.2c9.2-2.8,16.9-6.7,23.3-11.7
			c6.4-5.1,11.3-11.3,14.6-18.8c3.4-7.5,5.1-15.8,5.1-24.9c0-10.6-2.9-19.7-8.7-27.3c-5.8-7.6-13.3-14.3-22.6-20.2
			c-9.3-5.9-19.8-11.4-31.6-16.6c-11.8-5.2-24-10.7-36.5-16.4c-12.5-5.8-24.7-12.3-36.5-19.7c-11.8-7.3-22.3-16.1-31.6-26.4
			c-9.3-10.2-16.8-22.3-22.6-36.3c-5.8-14-8.7-30.7-8.7-50.2c0-22.4,4.2-42.1,12.5-59.1c8.3-17,19.5-31.1,33.6-42.3
			c14.1-11.2,30.7-19.6,49.8-25.1c19.1-5.5,39.4-8.3,60.9-8.3c11.1,0,22.2,0.8,33.2,2.5c11.1,1.7,21.4,4,31.1,6.9
			c9.6,2.9,18.2,6.1,25.6,9.8c7.5,3.6,12.4,6.6,14.8,9c2.4,2.4,4,4.5,4.9,6.1c0.8,1.7,1.6,3.9,2.2,6.7c0.6,2.8,1,6.3,1.3,10.5
			c0.2,4.2,0.4,9.5,0.4,15.7c0,7-0.2,12.9-0.5,17.7c-0.4,4.8-1,8.8-1.8,11.9c-0.8,3.1-2,5.4-3.6,6.9c-1.6,1.4-3.7,2.2-6.3,2.2
			c-2.7,0-6.9-1.7-12.6-5.1c-5.8-3.4-12.9-7-21.3-11c-8.4-4-18.2-7.6-29.3-10.8c-11.1-3.3-23.2-4.9-36.5-4.9
			c-10.4,0-19.4,1.3-27.1,3.8c-7.7,2.5-14.1,6-19.3,10.5c-5.2,4.5-9,9.8-11.6,16.1c-2.5,6.3-3.8,12.9-3.8,19.9
			c0,10.4,2.8,19.3,8.5,26.9c5.7,7.6,13.2,14.3,22.8,20.2c9.5,5.9,20.3,11.4,32.3,16.6c12,5.2,24.3,10.7,36.8,16.4
			c12.5,5.8,24.8,12.3,36.8,19.7c12,7.3,22.8,16.1,32.1,26.4c9.4,10.2,17,22.3,22.8,36.1C379.6,308.5,382.4,324.8,382.4,343.6z"/>
		<path class="st7" d="M550.4,470.7c0,2.4-0.8,4.6-2.3,6.5c-1.6,1.9-4.2,3.5-7.8,4.7c-3.6,1.2-8.4,2.2-14.4,2.9
			c-6,0.7-13.7,1.1-23.1,1.1c-9.2,0-16.8-0.4-22.9-1.1c-6.1-0.7-11-1.7-14.6-2.9c-3.6-1.2-6.2-2.8-7.8-4.7c-1.6-1.9-2.3-4.1-2.3-6.5
			V29.3c0-2.4,0.8-4.6,2.3-6.5c1.6-1.9,4.2-3.5,7.9-4.7c3.7-1.2,8.6-2.2,14.6-2.9c6-0.7,13.6-1.1,22.8-1.1c9.4,0,17.1,0.4,23.1,1.1
			c6,0.7,10.8,1.7,14.4,2.9c3.6,1.2,6.2,2.8,7.8,4.7c1.6,1.9,2.3,4.1,2.3,6.5V470.7z"/>
		<path class="st7" d="M914.5,55.3c0,7.2-0.3,13.3-0.9,18.2c-0.6,4.9-1.6,8.8-2.9,11.7c-1.3,2.9-2.8,5.1-4.5,6.5
			c-1.7,1.4-3.6,2.2-5.8,2.2H747.6v125.7H891c2.2,0,4.1,0.6,5.8,1.8c1.7,1.2,3.2,3.3,4.5,6.1c1.3,2.9,2.3,6.7,2.9,11.6
			c0.6,4.8,0.9,10.8,0.9,18.1c0,7.2-0.3,13.2-0.9,18.1c-0.6,4.8-1.6,8.8-2.9,11.9c-1.3,3.1-2.8,5.4-4.5,6.7c-1.7,1.3-3.6,2-5.8,2
			H747.6V470c0,2.7-0.7,4.9-2.2,6.9c-1.4,1.9-4,3.6-7.8,4.9c-3.7,1.3-8.6,2.3-14.6,3.1c-6,0.7-13.7,1.1-23.1,1.1
			c-9.2,0-16.8-0.4-22.9-1.1c-6.1-0.7-11-1.7-14.6-3.1c-3.6-1.3-6.2-2.9-7.8-4.9c-1.6-1.9-2.3-4.2-2.3-6.9V46.3
			c0-10.6,2.7-18.2,8.1-22.9c5.4-4.7,12.1-7,20-7h220c2.2,0,4.1,0.7,5.8,2c1.7,1.3,3.2,3.5,4.5,6.5c1.3,3,2.3,7,2.9,12.1
			C914.2,41.9,914.5,48.1,914.5,55.3z"/>
		<path class="st7" d="M1180.7,306.3v164.3c0,2.4-0.8,4.6-2.3,6.5c-1.6,1.9-4.2,3.5-7.8,4.7c-3.6,1.2-8.5,2.2-14.6,2.9
			c-6.1,0.7-13.8,1.1-22.9,1.1c-9.4,0-17.1-0.4-23.1-1.1c-6-0.7-10.9-1.7-14.6-2.9c-3.7-1.2-6.3-2.8-7.8-4.7
			c-1.4-1.9-2.2-4.1-2.2-6.5V306.3L957.5,51.7c-4.6-8.9-7.5-15.8-8.9-20.8c-1.3-4.9-0.6-8.7,2.2-11.2c2.8-2.5,7.9-4.1,15.4-4.7
			c7.5-0.6,17.8-0.9,31.1-0.9c11.1,0,19.9,0.2,26.5,0.7c6.6,0.5,11.9,1.4,15.7,2.7c3.8,1.3,6.7,3.1,8.5,5.2c1.8,2.2,3.6,4.9,5.2,8.3
			l52,114.9c5.1,11.1,10.1,22.8,15,35c4.9,12.3,9.9,25.2,15,38.6h0.7c4.6-13,9.3-25.6,14.1-37.9c4.8-12.3,9.5-24,14.1-35l51.3-114.1
			c1.2-3.9,2.7-6.9,4.5-9.2c1.8-2.3,4.5-4.2,8.1-5.6c3.6-1.4,8.5-2.4,14.8-2.9c6.3-0.5,14.6-0.7,24.9-0.7c13.7,0,24.4,0.3,32,0.9
			c7.6,0.6,12.8,2.2,15.5,4.7c2.8,2.5,3.4,6.3,2,11.4c-1.4,5.1-4.3,11.9-8.7,20.6L1180.7,306.3z"/>
		<path class="st7" d="M21.3,148.4C11,120.2-4.1,96.6-24,77.4s-44.3-33.6-73.3-43.3c-29-9.8-64.4-14.6-106-14.6h-119.9
			c-7.9,0-14.6,2.3-20,7c-5.4,4.7-8.1,12.3-8.1,22.9v85.6c32.2-0.6,54.5,2.2,54.5,2.2c-19.6,5.5-37.7,11.4-54.5,17.8v301.8
			c0,10.6,2.7,18.2,8.1,22.9c5.4,4.7,12.1,7,20,7h111.6c41.4,0,77.1-4.5,107.1-13.5s55.4-23.2,76.4-42.4c21-19.3,37-44.1,48.2-74.6
			c11.2-30.5,16.8-67.1,16.8-110C36.9,209.2,31.7,176.6,21.3,148.4z M-70.2,320.3c-5.9,20.2-14.8,37.1-26.7,50.7
			c-11.9,13.6-26.8,23.8-44.6,30.5c-17.8,6.7-39.7,10.1-65.7,10.1h-49.5V93.9h48c29.1,0,52.7,3.9,70.6,11.7
			c17.9,7.8,32.6,18.7,44.1,32.7c11.4,14,19.7,30.5,24.9,49.5c5.2,19,7.8,39.6,7.8,61.8C-61.4,276.5-64.3,300.1-70.2,320.3z"/>
	</g>
</g>
</svg>
