<?xml version="1.0" encoding="UTF-8"?>
<svg xmlns="http://www.w3.org/2000/svg" xmlns:xlink="http://www.w3.org/1999/xlink" width="1013pt" height="1572pt" viewBox="0 0 1013 1572" version="1.1">
<defs>
<linearGradient id="linear0" gradientUnits="userSpaceOnUse" x1="194.09" y1="6418.65" x2="2101.37" y2="7802.72" gradientTransform="matrix(0.703472,0,0,0.703356,0,-3666.593288)">
<stop offset="0" style="stop-color:rgb(100%,100%,100%);stop-opacity:1;"/>
<stop offset="0.46" style="stop-color:rgb(96.862745%,98.039216%,99.607843%);stop-opacity:1;"/>
<stop offset="0.85" style="stop-color:rgb(94.901961%,96.470588%,99.215686%);stop-opacity:1;"/>
<stop offset="1" style="stop-color:rgb(91.764706%,94.117647%,99.215686%);stop-opacity:1;"/>
</linearGradient>
</defs>
<g id="surface1">
<path style=" stroke:none;fill-rule:nonzero;fill:url(#linear0);" d="M 0 1571.664062 L 0 0.367188 L 1013 0.367188 L 1013 1571.664062 Z M 0 1571.664062 "/>
</g>
</svg>
