<?xml version="1.0" encoding="utf-8"?>

<!-- Generator: Adobe Illustrator 22.0.0, SVG Export Plug-In . SVG Version: 6.00 Build 0)  -->

<svg version="1.1" id="Layer_1" xmlns="http://www.w3.org/2000/svg" xmlns:xlink="http://www.w3.org/1999/xlink" x="0px" y="0px"

	 viewBox="0 0 500 500" style="enable-background:new 0 0 500 500;" xml:space="preserve">

<g>

	<path d="M283.5,289c1.4-1.8,2.8-3.7,4.3-5.6c37.4-46.7,95.7-91.8,202.5-121.8c0,0-78.6-9.8-147.6,14.1l0-0.1

		c-1.5,0.5-2.9,1.1-4.4,1.7c-12.7,4.7-25,10.6-36.4,17.9c-0.2,0.1-0.4,0.3-0.4,0.3c-5.9,3.2-11.8,8-17.4,13.2

		c-6.8,6.1-13,12.9-18.5,20.5c-0.5,0.6-1,1.3-1.5,1.9l0,0.1c0,0,0,0.1-0.1,0.1C223.7,289.8,171,328.3,139,348.2l63.8-188l18.6-56.1

		h0.4l36.2,108.6c0,0,0,0,0,0c0.5-1.5,15.3-39.4,76.3-61c15.1-5.3,33-9.7,54.2-12.2c0,0-29.7-7.2-59.8-3.9L292.6,31.9

		c-1.5-4.6-3.2-8.3-5.3-10.9c-2.1-2.7-5.5-4.7-10.2-6c-4.7-1.3-11.4-2.2-19.9-2.6c-8.5-0.4-19.9-0.5-34.3-0.5

		c-12.4,0-22.4,0.2-29.9,0.5c-7.5,0.4-13.4,1.2-17.7,2.6c-4.3,1.3-7.4,3.3-9.3,5.8c-1.9,2.6-3.6,5.9-5.1,10L15.4,449.5

		c-2.9,8.5-4.7,15.3-5.5,20.4c-0.7,5.1,0.1,9.1,2.6,11.9c1.2,1.3,2.8,2.4,4.8,3.3l0,0c0,0,0,0,0,0c2.2,0.9,5,1.6,8.3,2

		c6.3,0.7,15.1,1.1,26.3,1.1c10.5,0,18.9-0.3,25.4-0.7c4.1-0.3,7.6-0.8,10.5-1.5c35.7-4.1,77.6-16.6,106.7-49.2

		C226.7,400.6,241.3,344.1,283.5,289L283.5,289z"/>

	<path d="M438.4,450.2l-70.3-201.7c0,0-73.1,50.1-91,124.6c0,0,10.6-14.1,25.6-26.4l45.2,135.7c1.5,1.2,3.3,2.2,5.9,3

		c3.7,1.1,8.9,1.8,15.9,2.2c6.9,0.4,16.6,0.5,29,0.5c11.9,0,21.3-0.3,28.1-0.9c6.8-0.6,11.5-2.2,14.2-4.7c2.7-2.6,3.6-6.4,2.9-11.5

		C443.2,465.9,441.3,458.9,438.4,450.2z"/>

</g>

</svg>

