<?xml version="1.0" encoding="utf-8"?>
<!-- Generator: Adobe Illustrator 22.0.0, SVG Export Plug-In . SVG Version: 6.00 Build 0)  -->
<svg version="1.1" id="Layer_1" xmlns="http://www.w3.org/2000/svg" xmlns:xlink="http://www.w3.org/1999/xlink" x="0px" y="0px"
	 viewBox="0 0 16 16" style="enable-background:new 0 0 16 16;" xml:space="preserve">
<style type="text/css">
	.st0{fill:#FFFFFF;stroke:#FFFFFF;stroke-width:0.72;stroke-linejoin:round;stroke-miterlimit:10;}
</style>
<g>
	<path class="st0" d="M15,7.5l-0.1,0.4l-2.4,6.5c-0.1,0.4-0.4,0.6-0.8,0.6H1.7c-0.4,0-0.7-0.3-0.7-0.7V4.4c0-0.4,0.3-0.7,0.7-0.7
		h4.5L7,5.1h3L9.6,4.8H7.2L6.4,3.3H1.7c-0.6,0-1.1,0.5-1.1,1.1v9.8c0,0.6,0.5,1.1,1.1,1.1h10.1c0.3,0,0.6-0.1,0.9-0.4
		c0.1-0.1,0.2-0.3,0.3-0.5l2.4-6.6l0.1-0.4H15z"/>
	<path class="st0" d="M6.1,7.5l-3.3,7.4l-0.2,0.4h9.1c0.3,0,0.6-0.1,0.9-0.4H3.2v0l3.1-7h9l0.1-0.4H6.1z"/>
	<g>
		<rect x="12.4" y="0.7" class="st0" width="0.4" height="5.1"/>
		<polygon class="st0" points="12.9,5.8 12.6,6.1 10.4,3.8 10.6,3.6 12.4,5.4 12.6,5.6 12.8,5.7 		"/>
		<polygon class="st0" points="14.9,3.8 12.9,5.8 12.6,6.1 12.4,5.8 12.4,5.7 12.8,5.4 14.6,3.6 		"/>
	</g>
</g>
</svg>
