<?xml version="1.0" encoding="utf-8"?>
<!-- Generator: Adobe Illustrator 22.0.0, SVG Export Plug-In . SVG Version: 6.00 Build 0)  -->
<svg version="1.1" id="Layer_1" xmlns="http://www.w3.org/2000/svg" xmlns:xlink="http://www.w3.org/1999/xlink" x="0px" y="0px"
	 viewBox="0 0 32 37" style="enable-background:new 0 0 32 37;" xml:space="preserve">
<style type="text/css">
	.st0{fill:#FFFFFF;}
</style>
<path class="st0" d="M25.5,10.4H6.9c-3.1,0-5.7,2.5-5.7,5.7v8.7c0,3.1,2.5,5.7,5.7,5.7h13.3l5.9,6.5l0.1-6.6
	c2.8-0.4,4.9-2.7,4.9-5.6v-8.7C31.2,12.9,28.6,10.4,25.5,10.4z M8.3,23.3c-1.5,0-2.8-1.2-2.8-2.8c0-1.5,1.2-2.8,2.8-2.8
	c1.5,0,2.8,1.2,2.8,2.8C11.1,22.1,9.8,23.3,8.3,23.3z M16.2,23.3c-1.5,0-2.8-1.2-2.8-2.8c0-1.5,1.2-2.8,2.8-2.8
	c1.5,0,2.8,1.2,2.8,2.8C18.9,22.1,17.7,23.3,16.2,23.3z M24.1,23.3c-1.5,0-2.8-1.2-2.8-2.8c0-1.5,1.2-2.8,2.8-2.8
	c1.5,0,2.8,1.2,2.8,2.8C26.8,22.1,25.6,23.3,24.1,23.3z"/>
</svg>
