<?xml version="1.0" encoding="utf-8"?>
<!-- Generator: Adobe Illustrator 22.0.0, SVG Export Plug-In . SVG Version: 6.00 Build 0)  -->
<svg version="1.1" id="Layer_1" xmlns="http://www.w3.org/2000/svg" xmlns:xlink="http://www.w3.org/1999/xlink" x="0px" y="0px"
	 viewBox="0 0 32 37" style="enable-background:new 0 0 32 37;" xml:space="preserve">
<style type="text/css">
	.st0{fill:#FFFFFF;}
</style>
<path class="st0" d="M26.8,23.1v-0.4c0-1.4-1.2-2.6-2.6-2.6h-6.1c0.1-0.5,0.5-1.7,1.2-2.5c0.9-1,2-3.9,1.4-6.4
	c-0.6-2.5-2.2-3.5-3.1-2.8c-0.9,0.7-0.9,4.5-2.8,6.3c-2,1.9-4.2,5.6-5.1,6.1H5.2v14.8H9c0,0,0.9,1,4,1c0.1,0-0.2,0,9.5,0
	c2.3,0,3.1-3,1.8-3.9c1.3-0.8,1.8-2.6,0.5-3.5c2.3-1.4,1.8-3.7,0.7-4.3C26.2,24.8,26.8,23.9,26.8,23.1z"/>
</svg>
